...
----------------------------------------------------------------------
Ran 3 tests in 0.002s

OK
Name               Stmts   Miss Branch BrPart  Cover   Missing
--------------------------------------------------------------
Diplomacy.py          84      5     54      3    94%   21->22, 22-23, 74->75, 75-76, 89->90, 90
TestDiplomacy.py      21      0      2      1    96%   52->exit
--------------------------------------------------------------
TOTAL                105      5     56      4    94%
