....
----------------------------------------------------------------------
Ran 4 tests in 0.000s

OK
Name               Stmts   Miss Branch BrPart  Cover   Missing
--------------------------------------------------------------
Diplomacy.py          18      0      6      0   100%
TestDiplomacy.py      25      0      0      0   100%
--------------------------------------------------------------
TOTAL                 43      0      6      0   100%
